Adventures in Data Science - Advent of Code: Day Four
…
Reviewing a vector of booleans by hand was not a great idea, but it did lead me to my first thought about my error. There were 35 instances where both instances were true. That could be an issue. So I added a few steps to my answer to see if that was indeed the case.

pairs %>%
  select(a_contains_b, b_contains_a)

# A tibble: 1,000 × 2
   a_contains_b b_contains_a
   <lgl>        <lgl>       
 1 FALSE        TRUE        
 2 TRUE         FALSE       
 3 FALSE        FALSE       
 4 FALSE        FALSE       
 5 FALSE        FALSE       
 6 FALSE        TRUE        
 7 FALSE        FALSE       
 8 FALSE        TRUE        
 9 FALSE        TRUE        
10 TRUE         FALSE       
# … with 990 more rows
